println("             |                                               ")
println("             |                                               ")
println(" \\           |          /                                   ")
println("  \\          |         /                                     .    ")
println("   \\         |        /                                     (/    ")
println("    \\     ''''''     /                                 .''''/''.             .....                    ....              ...             ")
println("     \\   :       :  /                          _     .'    /    '.         :      :                .'      '.         .'    '.          ")
println("       \\;         ;/          ,,   (')   ;';  ; ;    |    /      |     (:::________ :::)          |          |       |        |              ")
println("--------|          |--------   ''   '    ','   ''    '   /       '         :      :                '        '         ' ....'             ")
println("        ;         ;                                  '. /       .'           '''''                  '------'                          ")
println("       /  :     :\\                                    (/ ''''''                                                                   ")
println("      /    '''''' \\                                                               ")
println("     /       |     \\                                                              ")
println("    /        |      \\                                                             ")
println("   /         |       \\                                                            ")
println("  /          |        \\                                                           ")
println("             |                                                                     ")
println("             |                                                                     ")
println("                                                                                   ")
println("                                                                                   ")